Duncan Garmonsway: CRAN h-index
…
From that data you can combine the names of packages listed in depends and imports.

# Depends and Imports count, Suggests and Enhances doesn't.
packages <-
  pkglist %>%
  mutate(maintainer = clean_up_author(maintainer)) %>%
  select(package, maintainer, author, depends, imports) %>%
  mutate(author = map2(maintainer, author, c),
         cites = map2(depends, imports, c)) %>%
  select(package, author, cites) %>%
  print()

# A tibble: 13,719 x 3
   package     author    cites    
   <chr>       <list>    <list>   
 1 A3          <chr [2]> <chr [3]>
 2 abbyyR      <chr [2]> <chr [6]>
 3 abc         <chr [5]> <chr [6]>
 4 abc.data    <chr [5]> <chr [1]>
 5 ABC.RAP     <chr [5]> <chr [3]>
 6 ABCanalysis <chr [4]> <chr [1]>
 7 abcdeFBA    <chr [3]> <chr [5]>
 8 ABCoptim    <chr [3]> <chr [5]>
 9 ABCp2       <chr [5]> <chr [2]>
10 abcrf       <chr [6]> <chr [7]>
#  with 13,709 more rows

That data frame has to be unnested in stages because both author and cites are ragged list-columns. Separate data frames are created, one for the packageauthor pairs, the other for packagecited-package pairs. Then they are joined to make a data frame with one row per package per author per citation.

package_citations <-
  packages %>%
  unnest(cites) %>%
  dplyr::filter(!is.na(cites)) %>% # NAs occur when depends or imports is empty.
  distinct() %>% # Duplicates occur when a package is in both depends and imports.
  print()

# A tibble: 56,324 x 2
   package cites   
   <chr>   <chr>   
 1 A3      xtable  
 2 A3      pbapply 
 3 abbyyR  httr    
 4 abbyyR  XML     
 5 abbyyR  curl    
 6 abbyyR  readr   
 7 abbyyR  plyr    
 8 abbyyR  progress
 9 abc     abc.data
10 abc     nnet    
#  with 56,314 more rows

package_authors <-
  packages %>%
  unnest(author) %>%
  distinct() %>% # Duplicates occur when a maintainer is also an author (often)
  print()

# A tibble: 33,868 x 2
   package  author            
   <chr>    <chr>             
 1 A3       Scott Fortmann-Roe
 2 abbyyR   Gaurav Sood       
 3 abc      Blum Michael      
 4 abc      Csillery Katalin  
 5 abc      Lemaire Louisiane 
 6 abc      Francois Olivier  
 7 abc.data Blum Michael      
 8 abc.data Csillery Katalin  
 9 abc.data Lemaire Louisiane 
10 abc.data Francois Olivier  
#  with 33,858 more rows

Recombining authors and citations. I did some extra work to detect self-citations.

citations <-
  package_authors %>%
  inner_join(package_citations, by = c("package" = "cites")) %>%
  rename(cited_by_package = package.y) %>%
  left_join(package_authors, by = c("cited_by_package" = "package")) %>%
  rename(author = author.x,
         cited_by_author = author.y) %>%
  mutate(self_citation = cited_by_author == author) %>%
  print()

# A tibble: 804,796 x 5
   package author     cited_by_package cited_by_author   self_citation
   <chr>   <chr>      <chr>            <chr>             <lgl>        
 1 abc     Blum Mich abctools         Matt Nunes        FALSE        
 2 abc     Blum Mich abctools         Dennis Prangle    FALSE        
 3 abc     Blum Mich abctools         Guilhereme Rodri FALSE        
 4 abc     Blum Mich EasyABC          Nicolas Dumoulin  FALSE        
 5 abc     Blum Mich EasyABC          Franck Jabot      FALSE        
 6 abc     Blum Mich EasyABC          Thierry Faure     FALSE        
 7 abc     Blum Mich EasyABC          Carlo Albert      FALSE        
 8 abc     Blum Mich ecolottery       Franois Munoz    FALSE        
 9 abc     Blum Mich ecolottery       Matthias Greni   FALSE        
10 abc     Blum Mich ecolottery       Pierre Denelle    FALSE        
#  with 804,786 more rows
…
author_citations <-
  inner_join(author_citations_inc_self,
             author_citations_exc_self,
             by = c("package", "author")) %>%
  right_join(package_authors, by = c("package", "author")) %>%
  mutate_if(is.numeric, replace_na, 0L) %>%
  print()

# A tibble: 33,868 x 4
   package  author             citations_inc_self citations_exc_self
   <chr>    <chr>                           <int>              <int>
 1 A3       Scott Fortmann-Roe                  0                  0
 2 abbyyR   Gaurav Sood                         0                  0
 3 abc      Blum Michael                        3                  3
 4 abc      Csillery Katalin                    3                  3
 5 abc      Lemaire Louisiane                   3                  3
 6 abc      Francois Olivier                    3                  3
 7 abc.data Blum Michael                        1                  1
 8 abc.data Csillery Katalin                    1                  1
 9 abc.data Lemaire Louisiane                   1                  1
10 abc.data Francois Olivier                    1                  1
#  with 33,858 more rows
…
A couple of points:

The only women in at least the top 11 are employees of RStudio.

In the CRAN context the h-index rewards packages that are used by other packages, so authors of foundational or back-end packages are more likely to have high h-indexes than authors of presentational or front-end packages.

Here are some authors with high numbers of downloads of packages they maintain but h-indexes of zero.

Downloads from the RStudio CRAN mirror on 13 February 2019.

archdata is the only CRAN package maintained by David L Carlson. It was downloaded 1700 times on 13 February 2019, but isnt depended on or imported by any other CRAN packages, perhaps because it provides data rather than functions. Carlson has no other CRAN packages.

prophet is the only CRAN package maintained by Sean Taylor. It isnt depended on or imported by any other CRAN packages even though it provides functions, perhaps because its function isnt primarily for developers.

# A tibble: 5,297 x 2
   maintainer       downloads
   <chr>                <int>
 1 David L Carlson       1700
 2 Sean Taylor           1331
 3 Brendan Rocks          980
 4 Vincent Audigier       878
 5 Anoop Shah             876
 6 Chris Dalzell          815
 7 Rahul Premraj          661
 8 Oliver Jakoby          619
 9 Stuart Baumann         601
10 Aravind Hebbali        527
#  with 5,287 more rows
…
