With added bacran
…
centrality_information: centrality based on inverse sum of resistance distance between nodes (netrankr)

Crikey that takes a while, lets try centrality_betweenness.

centrality <-
  cran_pkg_graph %>%
  activate(nodes) %>%
  mutate(importance = centrality_betweenness(directed = FALSE))

centrality %>%
  activate(nodes) %>%
  as_tibble() %>%
  arrange(desc(importance))

# A tibble: 16,911 x 3
   name              number importance
   <chr>              <int>      <dbl>
 1 Hadley Wickham       354   6068597.
 2 R Core              1465   5785565.
 3 Martin Maechler      273   3599064.
 4 Brian Ripley        1704   2933798.
 5 Dirk Eddelbuettel   1074   2757885.
 6 Kurt Hornik          559   2296512.
 7 Ben Bolker           204   2146111.
 8 Achim Zeileis        756   1859785.
 9 RStudio             1652   1824386.
10 Yihui Xie            378   1738956.
#  with 16,901 more rows
…
