Duncan Garmonsway: New R package: nzcrash
…
This time, join causes to both vehicles and crashes to assess the drunken cyclist menace.

## # A tibble: 55 x 2
##    cause                                                             n
##    <fct>                                                         <int>
##  1 Behind when changing lanes position or direction (includes U…    26
##  2 <NA>                                                             20
##  3 When required to give way to traffic from another direction      10
##  4 Wandering or wobbling                                             8
##  5 At Give Way sign                                                  4
##  6 Cyclist or M/cyclist wearing dark clothing                        4
##  7 Driving or riding on footpath                                     4
##  8 On left without due care                                          4
##  9 When pulling out or moving to the right                           4
## 10 At steady red light                                               3
## # … with 45 more rows
…
